{
    "global":{
        "credits": "Bot développé par JohnyBro#0090",
        "noPermission": "Vous n'avez pas les permissions suffisantes, seul un admin ou le propriétaire du serveur peut executer cette commande.",
        "invalidCommand": "Commande invalide",
        "commandNotFound": "Commande introuvable",
        "missingArgs": "Arguments manquant",
        "noGamePlayedSeason": "Ce joueur n'a pas joué cette saison",
        "playerNotFound": "Joueur introuvable",
        "noRecentGames": "Ce joueur n'a pas joué de parties récemment",
        "noPremium": "Vous devez avoir la version premium du bot pour pouvoir utiliser cette fonctionalité, contactez JohnyBro#0090 pour plus d'info.",
        "noRolesPermission": "Je n'ai pas la permission de gérer les rôles",
        "internalError": "Erreur interne"
    },
    "common": {
        "victories": "Victoires",
        "victory": "Victoire",
        "losses": "Défaites",
        "defeat": "Défaite",
        "ratio": "Ratio",
        "solo": "Solo",
        "teams": "Equipes",
        "league": "Ligue",
        "division": "Division",
        "level": "Niveau",
        "hours": "Heures",
        "ranked": "Classé",
        "unranked": "Non classé",
        "leagues":[
            "Bronze",
            "Argent",
            "Or",
            "Platine",
            "Diamant",
            "Champion",
            "Grand Champion"
        ],
        "success": "Succès",
        "help": "Aide",
        "error": "Erreur",
        "aliases": "Alias",
        "misc": "Divers",
        "stats": "Statistiques",
        "premium": "Premium",
        "tournament": "Tournoi"
    },
    "commands":{
        "help":{
            "description": "Liste les commandes disponible",
            "help": "",
            "longDescription": "Les arguments entre **<>** sont obligatoire et ceux entre **[]** sont facultatif\nPour plus d'informations sur une commande tapez la commandes suivi de \"help\", par exemple `!stats help`."
        },
        "stats":{
            "description": "Affiche les statistiques d'un joueur",
            "help": "<pseudo Battlerite> [saison]",
            "waitingStats": "Récupération des statistiques du joueur ...",
            "waitingImage": "Création de l'image des statistiques, veuillez patienter ...",
            "errorImage": "Erreur lors de la création de l'image veuillez contacter JohnyBro#0090"
        },
        "champions":{
            "description": "Affiche les 5 meilleurs champions du joueur, trié par défaut par le temps de jeu.",
            "help": "<pseudo Battlerite>",
            "waitingChamps": "Récupération des champions du joueur ...",
            "waitingImage": "Création de l'image des champions, veuillez patienter ...",
            "errorSortArg": "Mauvais argument de tri"
        },
        "config":{
            "description": "Lance la configuration du bot (admin only)",
            "help": "",
            "botConfig": "Configuration du bot",
            "whichLang": "Quel langue voulez vous utiliser pour le bot ?",
            "chooseLang": "Tapez `fr` pour choisir le français.",
            "noResponse": "Vous avez fait trop long pour répondre ou vous n'avez pas répondu correctement, configuration annulée.",
            "whichSign": "Quel signe voulez vous utiliser pour les commandes du bot ? Seulement le premier caractère sera pris en compte.",
            "configDone": "Configuration effectuée"
        },
        "history": {
            "description": "Affiche l'historique des parties d'un joueur",
            "help": "<pseudo Battlerite> [nombre]",
            "waitingStats": "Récupération des parties du joueur ...",
            "waitingImage": "Création de l'image de l'historique, veuillez patienter ..."
        },
        "link":{
            "description": "Permet de lier son compte Battlerite pour avoir les rôles assigné dynamiquement",
            "help": "<pseudo Battlerite>",
            "accountLinked": "Compte Battlerite lié !"
        },
        "linkuser": {
            "description": "Permet de lier le compte battlerite d'un utilisateur",
            "help": "<@utilisateur> <pseudo Battlerite>",
            "noMention": "Vous devez **mentionner** (`@utilisateur`) l'utilisateur discord !"
        },
        "unlink": {
            "description": "Permet de dissocier son compte battlerite",
            "help": "",
            "unlinkedAccount": "Votre compte Battlerite n'est plus lié !"
        },
        "teams":{
            "description": "Affiche les meilleurs équipes du joueur",
            "help": "<pseudo Battlerite> [saison]",
            "waitingStats": "Récupération des équipes du joueur ...",
            "noTeams": "Ce joueur n'a pas d'équipes cette saison",
            "waitingImage": "Création de l'image des équipes, veuillez patienter ..."
        },
        "about":{
            "description": "A propos du bot",
            "help": "",
            "about": "Je me présente, JohnyBro (JohnyBro#0090), développeur du bot et administrateur du discord de la communauté FR de Battlerite.\n\nJ'ai développé le bot car je suis un grand fan du jeu et j'ai envie de contribuer à l'évolution de la communauté du jeu.\n\nLe bot est à moitié publique, au début j'ai developpé le bot uniquement pour mon serveur discord et j'ai choisi plus tard de mettre quelques fonctionnalités de base du bot public.\n\nSi vous voulez ajouter le bot à votre serveur discord il faudra me contacter par message privé.\n\nSi vous voulez me contacter, tester le bot, aider à la traduction ou faire des suggestions de fonctionnalités vous pouvez rejoindre le serveur discord dédié au bot ici : https://discord.gg/kpWyYAt.\n\nJ'ai passé énormément de temps à développer ce bot et à l'améliorer donc si vous voulez m'aider et faire un don pour notamment participer aux frais d'hébergement vous pouvez le faire ici : https://www.paypal.me/Baillod"
        },
        "invite":{
            "description": "Show the invitation link of the bot",
            "help": "",
            "longDescription": "You can add this bot to your server with this link : "
        }
    },
    "modules":{
        "toPNG": {
            "noRankedPlayed": "Aucune partie classée solo jouée",
            "placementGamesLeft": "Match de placement restant",
            "noTeam": "Aucune team",
            "noGamePlayed": "Ce joueur n'a pas fait de parties",
            "privateGame": "Partie privée"
        }
    }
}